<svg width="110" height="23" viewBox="0 0 110 23" fill="none" xmlns="http://www.w3.org/2000/svg">
<path d="M4.38965 16.8071C5.09554 17.6825 5.81447 18.7833 6.19069 19.4482C6.64887 20.3126 6.83885 20.8963 7.17969 21.9417C7.37897 22.5142 7.56895 22.6878 7.96753 22.6878C8.40335 22.6878 8.60264 22.396 8.75537 21.9417C9.07386 20.9609 9.31971 20.2147 9.70897 19.5036C11.2102 16.6962 13.6575 14.7015 15.0357 11.968C15.0357 11.968 15.9428 10.2983 15.9428 7.96006C15.9428 5.78063 15.0488 4.26611 15.0488 4.26611L4.39524 16.8255L4.38965 16.8071Z" fill="white"/>
<path d="M0.776221 11.6732C1.63484 13.6126 3.27198 15.3118 4.38949 16.8078L10.3123 9.84474C10.3123 9.84474 9.47599 10.9308 7.9655 10.9308C6.28179 10.9308 4.91099 9.60094 4.91099 7.92019C4.91099 6.76399 5.6057 5.9624 5.6057 5.9624C1.24744 6.60515 1.48956 7.65238 0.763184 11.6695L0.776221 11.6732Z" fill="white"/>
<path d="M10.3879 0.364258C12.3622 0.994076 14.0384 2.32205 15.0442 4.26137L10.3134 9.8577C10.3134 9.8577 11.0081 9.05242 11.0081 7.89991C11.0081 6.18407 9.54793 4.88934 7.97225 4.88934C6.47665 4.88934 5.62549 5.96244 5.62549 5.96244C5.98868 5.14238 9.74163 0.643151 10.3935 0.366105L10.3879 0.364258Z" fill="white"/>
<path d="M1.85693 2.82587C3.03404 1.43695 5.0977 0 7.94733 0C9.32373 0 10.3686 0.362007 10.3686 0.362007L5.6192 5.95834C5.29885 5.78601 2.17356 3.37257 1.85693 2.81848V2.82587Z" fill="white"/>
<path d="M0.776666 11.6733C0.776666 11.6733 0 10.144 0 7.94237C0 5.85529 0.823228 4.02679 1.86251 2.84473L5.62477 5.98458L0.782253 11.6733H0.776666Z" fill="white"/>
<path fill-rule="evenodd" clip-rule="evenodd" d="M67.6755 12.1294L71.1769 10.6721C70.9824 10.1807 70.4073 9.84176 69.7223 9.84176C68.8469 9.83752 67.6333 10.6128 67.6755 12.1294V12.1294ZM71.7859 13.5401L73.1222 14.4297C72.6908 15.0694 71.6548 16.1708 69.8576 16.1708C67.6333 16.1708 66.0263 14.4466 66.0263 12.248C66.0263 9.91378 67.6459 8.32515 69.6673 8.32515C71.5237 8.3887 72.6781 9.58758 73.1983 11.2652L67.9546 13.4342C68.3564 14.2221 68.978 14.6246 69.8533 14.6246C70.7245 14.6246 71.3334 14.1925 71.7774 13.5401H71.7859ZM63.2777 15.9336H64.9988V4.41079H63.2777V15.9336ZM60.4698 12.2607C60.4698 10.8797 59.5479 9.86718 58.3765 9.86718C57.1925 9.86718 56.1945 10.8797 56.1945 12.2607C56.1945 13.629 57.1883 14.6246 58.3765 14.6246C59.5521 14.6246 60.4698 13.629 60.4698 12.2607ZM61.9837 8.56239V15.5947C61.9837 18.4923 60.2795 19.6827 58.2624 19.6827C56.3637 19.6827 55.2219 18.4034 54.7906 17.3655L56.2875 16.7427C56.554 17.3824 57.2094 18.1407 58.2624 18.1407C60.1864 17.9217 60.3556 16.675 60.3556 15.2727H60.2922C59.9073 15.7472 59.1631 16.1666 58.2285 16.1666C56.2706 16.1666 54.4734 14.4594 54.4734 12.2565C54.4734 10.0409 56.2664 8.31668 58.2285 8.31668C59.1631 8.31668 59.9073 8.73184 60.2922 9.1936H60.3514V8.55392C60.3514 8.54968 61.9837 8.54968 61.9837 8.54968V8.56239ZM43.208 12.248C43.208 10.8373 42.2016 9.87141 41.0387 9.87141C39.8716 9.87141 38.8694 10.8373 38.8694 12.248C38.8694 13.646 39.8758 14.6246 41.0387 14.6246C42.2016 14.6246 43.208 13.6417 43.208 12.248ZM44.8995 12.248C44.8995 14.506 43.1658 16.1708 41.0387 16.1708C38.9116 16.1708 37.1779 14.506 37.1779 12.248C37.1779 9.97309 38.9116 8.32515 41.0387 8.32515C43.1658 8.32515 44.8995 9.97309 44.8995 12.248ZM51.877 12.248C51.877 10.8373 50.8705 9.87141 49.7076 9.87141C48.5405 9.87141 47.5383 10.8373 47.5383 12.248C47.5383 13.646 48.5447 14.6246 49.7076 14.6246C50.8705 14.6246 51.877 13.6417 51.877 12.248ZM53.5685 12.248C53.5685 14.506 51.8347 16.1708 49.7076 16.1708C47.5806 16.1708 45.8468 14.506 45.8468 12.248C45.8468 9.97309 47.5806 8.32515 49.7076 8.32515C51.8347 8.32515 53.5685 9.97309 53.5685 12.248ZM30.5641 16.1708C27.2149 16.1708 24.3901 13.4342 24.3901 10.0705C24.3901 6.71112 27.2107 3.97021 30.5641 3.97021C32.4205 3.97021 33.7399 4.69886 34.7336 5.65203L33.5623 6.8255C32.8519 6.15616 31.8877 5.63509 30.5641 5.63509C28.1157 5.63509 26.2085 7.61345 26.2085 10.0409C26.2085 12.4937 28.1241 14.4466 30.5641 14.4466C32.1499 14.4466 33.0548 13.807 33.6342 13.2266C34.1078 12.7521 34.4207 12.0658 34.5391 11.1296H30.5641V9.46473H36.146C36.2052 9.76127 36.2348 10.1171 36.2348 10.5026C36.2348 11.7523 35.8923 13.2986 34.7971 14.3958C33.7314 15.5184 32.3655 16.1158 30.5683 16.1158" fill="white"/>
<path d="M77.2388 15.8462V5.60254H78.5593L82.1105 11.8417H82.1641L85.7153 5.60254H87.0358V15.8462H85.7157L85.7692 8.05173H85.7157L82.5214 13.6652H81.7541L78.5597 8.05173H78.5062C78.6036 10.6444 78.5597 13.254 78.5597 15.8462H77.2388ZM91.1581 16.025C90.4086 16.025 89.8019 15.8105 89.3022 15.3814C88.8025 14.9524 88.5527 14.3803 88.5527 13.6827C88.5527 12.9139 88.8561 12.324 89.4449 11.8949C90.0338 11.4659 90.7655 11.2513 91.6221 11.2513C92.3894 11.2513 93.0319 11.3944 93.5137 11.6804C93.5009 10.1934 92.4751 9.7854 91.6756 9.7854C90.9208 9.82133 90.2658 10.1376 89.9982 10.8044L88.8025 10.286C88.9631 9.87479 89.2843 9.48107 89.7662 9.12394C90.248 8.76682 90.8726 8.58762 91.6578 8.58762C92.55 8.58762 93.2995 8.85578 93.8884 9.37422C94.4773 9.89267 94.7807 10.6435 94.7807 11.591V15.8279H93.5315V14.8626C92.948 15.5955 92.1592 16.0085 91.1581 16.0246V16.025ZM93.5137 12.7713C92.7446 12.1849 91.1403 12.1117 90.3908 12.7177C89.8019 13.2898 89.7394 14.0567 90.3551 14.5054C91.8434 15.4619 93.5672 13.9727 93.5137 12.7713ZM99.9023 16.025C99.3669 16.025 98.8851 15.9177 98.4747 15.6853C98.0642 15.4529 97.743 15.1669 97.5289 14.8272H97.4575L97.511 15.7926V18.8854H96.2083V8.7847H97.4575V9.75007H97.511C97.7252 9.41041 98.0285 9.12437 98.4568 8.89196C98.8851 8.65956 99.3669 8.55229 99.8844 8.55229C100.795 8.55229 101.562 8.90984 102.222 9.62493C102.882 10.34 103.203 11.2339 103.203 12.2886C103.203 13.3434 102.882 14.2373 102.222 14.9524C101.58 15.6675 100.795 16.025 99.9023 16.025V16.025ZM99.6881 14.8093C100.295 14.8093 100.812 14.5769 101.259 14.1121C101.705 13.6473 101.919 13.0395 101.919 12.2708C101.919 11.502 101.705 10.8942 101.259 10.4294C100.812 9.9646 100.295 9.7322 99.6881 9.7322C99.0636 9.7322 98.546 9.9646 98.1178 10.4115C97.6895 10.8763 97.4753 11.4842 97.4753 12.2529C97.4753 13.0216 97.6895 13.6473 98.1178 14.0943C98.546 14.5948 99.0636 14.8093 99.6881 14.8093ZM107.04 16.025C106.255 16.025 105.613 15.8284 105.113 15.4529C104.596 15.0775 104.239 14.5948 103.989 14.0227L105.167 13.5401C105.541 14.416 106.166 14.863 107.058 14.863C107.469 14.863 107.808 14.774 108.058 14.5948C108.325 14.416 108.45 14.1836 108.45 13.8797C108.45 13.4149 108.129 13.111 107.487 12.9501L106.077 12.6104C105.631 12.5032 105.202 12.2708 104.81 11.9669C104.417 11.6629 104.203 11.216 104.203 10.6797C104.203 10.054 104.471 9.55342 105.024 9.178C105.577 8.7847 106.22 8.60592 106.969 8.60592C107.594 8.60592 108.147 8.74895 108.629 9.03498C109.11 9.32102 109.467 9.71432 109.664 10.2506L108.522 10.7154C108.272 10.0897 107.736 9.78583 106.915 9.78583C106.523 9.78583 106.202 9.87479 105.934 10.0361C105.667 10.1974 105.542 10.4115 105.542 10.6976C105.542 11.0909 105.845 11.3769 106.47 11.5199L107.862 11.8417C108.522 12.0026 109.004 12.2529 109.325 12.6283C109.646 13.0037 109.789 13.4149 109.789 13.8797C109.789 14.5054 109.539 15.0418 109.022 15.4529C108.522 15.8105 107.862 16.025 107.041 16.025H107.04Z" fill="white"/>
</svg>
