<svg width="122" height="86" viewBox="0 0 122 86" fill="none" xmlns="http://www.w3.org/2000/svg">
<path d="M85.0278 24.8831C86.449 34.5651 84.5474 44.4803 79.6396 52.444C78.5911 54.1423 77.1869 55.8543 75.17 55.9847C72.7187 56.1231 70.5984 53.6836 70.0959 51.2426C69.5934 48.8017 70.3123 46.4094 71.0282 44.0958C70.3148 51.7315 67.6803 59.0314 63.4305 65.1898C62.3877 66.7308 61.1496 68.2183 59.4652 68.964C57.7808 69.7097 55.4605 69.5028 54.1364 67.9486C53.381 67.0268 53.0715 65.7824 52.9165 64.628C52.5651 61.2912 53.3185 57.9553 55.0369 55.2016C53.3224 60.0055 51.5233 64.961 48.1497 68.7385C44.7762 72.516 39.519 74.9355 34.4028 73.5018C33.3096 73.1863 32.1842 72.6715 31.5075 71.7554C30.4925 70.3812 30.5995 68.5361 31.0127 66.9496C33.1773 58.4726 40.905 53.2354 48.1753 48.6354C45.6429 49.9112 42.8715 51.2486 39.9303 50.7603C37.0269 50.3142 34.1019 47.2253 34.9896 44.5299C35.3855 43.4152 36.245 42.5706 37.1774 41.8889C43.0196 37.5011 50.9767 36.7746 58.4937 36.2134C56.3688 36.06 54.1272 35.8588 52.1913 34.8518C50.2553 33.8448 48.555 31.7904 48.7522 29.6364C49.0449 25.9519 53.5088 22.5685 57.0499 21.7597C63.3394 20.2427 72.7242 18.2394 77.9027 15.8143C83.0812 13.3892 83.7263 14.8659 86.6536 10.3466" fill="#89B542"/>
<g opacity="0.76">
<path d="M87.5901 8.60826C76.4147 26.255 63.5334 42.7469 49.04 57.6939C44.9531 61.8834 40.7899 65.9879 36.5121 69.9652C36.2656 70.1855 36.6474 70.6099 36.8938 70.3896C52.1507 56.2912 65.9951 40.6228 78.1365 23.7204C81.5715 18.8887 84.9302 13.9721 88.054 8.95918C88.2652 8.61726 87.7602 8.30306 87.5901 8.60826Z" fill="#B4DD66"/>
<path d="M57.9028 59.5806C59.7151 55.1549 60.6738 50.4318 60.6541 45.5988C60.6278 45.2433 60.0791 45.2037 60.1054 45.5591C60.0873 50.3502 59.1693 55.0369 57.3598 59.3843C57.2293 59.7284 57.7345 59.8827 57.9028 59.5806Z" fill="#B4DD66"/>
<path d="M62.9215 41.7334C56.723 42.2691 50.5859 43.2812 44.6292 44.7391C44.2716 44.8312 44.4085 45.3918 44.7661 45.2996C50.8013 43.8474 56.8978 42.8717 63.0584 42.2939C63.4538 42.2438 63.3169 41.6833 62.9215 41.7334Z" fill="#B4DD66"/>
<path d="M74.7877 45.037C76.7194 39.3755 77.2174 33.2576 75.7898 27.2749C75.6854 26.9146 75.1728 26.9952 75.2367 27.3917C76.6296 33.2543 76.2126 39.2997 74.2461 44.8411C74.1159 45.1845 74.6575 45.3804 74.7877 45.037Z" fill="#B4DD66"/>
<path d="M72.2216 30.3592C67.1959 29.4078 62.0256 29.1912 57.0849 30.207C56.7285 30.2989 56.865 30.8579 57.2214 30.766C62.1244 29.7082 67.2541 29.9611 72.2016 30.9068C72.5523 30.9714 72.5723 30.4237 72.2216 30.3592Z" fill="#B4DD66"/>
</g>
</svg>
