<svg width="173" height="194" viewBox="0 0 173 194" fill="none" xmlns="http://www.w3.org/2000/svg">
<path fill-rule="evenodd" clip-rule="evenodd" d="M62.8575 3.46959C89.2493 -3.64987 121.804 -0.0751076 139.872 20.3659C156.473 39.1467 135.987 68.2509 141.682 92.6472C147.255 116.524 179.293 133.397 171.701 156.728C163.939 180.581 133.845 189.422 108.989 193.119C86.2803 196.496 64.2145 188.281 45.1444 175.552C27.0199 163.454 14.1379 146.009 7.40355 125.31C0.0133688 102.596 -3.53316 78.1401 6.37099 56.3791C17.4703 31.9922 36.9479 10.4589 62.8575 3.46959Z" fill="#6192FF"/>
</svg>
